activity4/activity4.sim/sim_1/behav/xsim/main_tb.vcd
$date
   Sat Nov 29 16:02:56 2025
$end

$version
  2025.1.0
  $dumpfile ("main_tb.vcd") 
$end

$timescale
  1ps
$end

$scope module main_tb $end
$var reg 1 ! clk $end
$var reg 1 " reset $end
$var reg 8 # switches [7:0] $end
$var reg 1 $ btn_0 $end
$var reg 1 % btn_1 $end
$var reg 1 & btn_2 $end
$var reg 1 ' led_correct $end
$var reg 1 ( led_incorrect $end
$var reg 4 ) an [3:0] $end
$var reg 7 * sseg [6:0] $end
$scope module uut $end
$var wire 1 + clk $end
$var wire 1 , reset $end
$var wire 8 - switches [7:0] $end
$var wire 1 . btn_0 $end
$var wire 1 / btn_1 $end
$var wire 1 0 btn_2 $end
$var reg 1 ' led_correct $end
$var reg 1 ( led_incorrect $end
$var reg 4 ) an [3:0] $end
$var reg 7 * sseg [6:0] $end
$var reg 4 1 result [3:0] $end
$var reg 4 2 hex3 [3:0] $end
$var reg 4 3 hex2 [3:0] $end
$var reg 4 4 hex1 [3:0] $end
$var reg 4 5 hex0 [3:0] $end
$var reg 4 6 dp_in [3:0] $end
$scope module door_fsm $end
$var wire 1 + clk $end
$var wire 1 , reset $end
$var wire 8 - switches [7:0] $end
$var wire 1 . btn_0 $end
$var wire 1 / btn_1 $end
$var wire 1 0 btn_2 $end
$var reg 1 ' led_correct $end
$var reg 1 ( led_incorrect $end
$var reg 4 1 result [3:0] $end
$var reg 3 7 state_reg $end
$var reg 3 8 state_next $end
$var reg 2 9 code_digit1 [1:0] $end
$var reg 2 : code_digit2 [1:0] $end
$var reg 2 ; code_digit3 [1:0] $end
$var reg 2 < code_digit4 [1:0] $end
$var reg 2 = input_digit1_reg [1:0] $end
$var reg 2 > input_digit1_next [1:0] $end
$var reg 2 ? input_digit2_reg [1:0] $end
$var reg 2 @ input_digit2_next [1:0] $end
$var reg 2 A input_digit3_reg [1:0] $end
$var reg 2 B input_digit3_next [1:0] $end
$var reg 2 C input_digit4_reg [1:0] $end
$var reg 2 D input_digit4_next [1:0] $end
$var reg 1 E btn_0_prev $end
$var reg 1 F btn_0_edge $end
$var reg 1 G btn_1_prev $end
$var reg 1 H btn_1_edge $end
$var reg 1 I btn_2_prev $end
$var reg 1 J btn_2_edge $end
$var reg 1 K any_btn_edge $end
$var reg 2 L current_digit [1:0] $end
$upscope $end
$scope module seg_display $end
$var wire 1 + clk $end
$var wire 1 , reset $end
$var wire 4 M hex3 [3:0] $end
$var wire 4 N hex2 [3:0] $end
$var wire 4 O hex1 [3:0] $end
$var wire 4 P hex0 [3:0] $end
$var wire 4 Q dp_in [3:0] $end
$var reg 4 ) an [3:0] $end
$var reg 7 * sseg [6:0] $end
$var reg 18 R q_reg [17:0] $end
$var reg 18 S q_next [17:0] $end
$var reg 4 T hex_in [3:0] $end
$upscope $end
$upscope $end
$scope task press_button $end
$var reg 2 U digit [1:0] $end
$upscope $end
$scope task system_reset $end
$upscope $end
$scope task set_secret_code $end
$var reg 2 V d1 [1:0] $end
$var reg 2 W d2 [1:0] $end
$var reg 2 X d3 [1:0] $end
$var reg 2 Y d4 [1:0] $end
$upscope $end
$scope task enter_code $end
$var reg 2 Z d1 [1:0] $end
$var reg 2 [ d2 [1:0] $end
$var reg 2 \ d3 [1:0] $end
$var reg 2 ] d4 [1:0] $end
$upscope $end
$upscope $end
$enddefinitions $end

#0
$dumpvars
0!
0"
b0 #
0$
0%
0&
x'
x(
b111 )
b1110 *
0+
0,
b0 -
0.
0/
00
b1111 1
b1111 2
b1111 3
b1111 4
b1111 5
b0 6
bx 7
b0 8
b0 9
b0 :
b0 ;
b0 <
bx =
bx >
bx ?
bx @
bx A
bx B
bx C
bx D
xE
0F
xG
0H
xI
0J
0K
b0 L
b1111 M
b1111 N
b1111 O
b1111 P
b0 Q
bx R
bx S
b1111 T
bx U
bx V
bx W
bx X
bx Y
bx Z
bx [
bx \
bx ]
$end

#5000
1!
0'
0(
1+
b0 7
0E
0G
0I

#10000
0!
0+

#15000
1!
1+

#20000
0!
0+

#25000
1!
1+

#30000
0!
0+

#35000
1!
1+

#40000
0!
0+

#45000
1!
1+

#50000
0!
0+

#55000
1!
1+

#60000
0!
0+

#65000
1!
1+

#70000
0!
0+

#75000
1!
1+

#80000
0!
0+

#85000
1!
1+

#90000
0!
0+

#95000
1!
1+

#100000
0!
1"
b1110 )
0+
1,
b0 =
b0 >
b0 ?
b0 @
b0 A
b0 B
b0 C
b0 D
b0 R
b1 S

#105000
1!
1+

#110000
0!
0+

#115000
1!
1+

#120000
0!
0+

#125000
1!
1+

#130000
0!
0+

#135000
1!
1+

#140000
0!
0+

#145000
1!
1+

#150000
0!
0"
0+
0,

#155000
1!
1+
b1 R
b10 S

#160000
0!
0+

#165000
1!
1+
b10 R
b11 S

#170000
0!
0+

#175000
1!
1+
b11 R
b100 S

#180000
0!
0+

#185000
1!
1+
b100 R
b101 S

#190000
0!
0+

#195000
1!
1+
b101 R
b110 S

#200000
0!
b10010010 #
0+
b10010010 -
b10 9
b1 ;
b10 <
b10 V
b0 W
b1 X
b10 Y

#205000
1!
1+
b110 R
b111 S

#210000
0!
0+

#215000
1!
1+
b111 R
b1000 S

#220000
0!
1&
0+
10
b1 8
b10 >
1J
1K
b10 L
b10 U
b10 Z
b0 [
b1 \
b10 ]

#225000
1!
1+
b1 7
b10 =
1I
0J
0K
b0 L
b1000 R
b1001 S

#230000
0!
0+

#235000
1!
1+
b1001 R
b1010 S

#240000
0!
0+

#245000
1!
1+
b1010 R
b1011 S

#250000
0!
0+

#255000
1!
1+
b1011 R
b1100 S

#260000
0!
0+

#265000
1!
1+
b1100 R
b1101 S

#270000
0!
0&
0+
00

#275000
1!
1+
0I
b1101 R
b1110 S

#280000
0!
0+

#285000
1!
1+
b1110 R
b1111 S

#290000
0!
0+

#295000
1!
1+
b1111 R
b10000 S

#300000
0!
0+

#305000
1!
1+
b10000 R
b10001 S

#310000
0!
0+

#315000
1!
1+
b10001 R
b10010 S

#320000
0!
0+

#325000
1!
1+
b10010 R
b10011 S

#330000
0!
0+

#335000
1!
1+
b10011 R
b10100 S

#340000
0!
0+

#345000
1!
1+
b10100 R
b10101 S

#350000
0!
0+

#355000
1!
1+
b10101 R
b10110 S

#360000
0!
0+

#365000
1!
1+
b10110 R
b10111 S

#370000
0!
1$
0+
1.
b10 8
1F
1K
b0 U

#375000
1!
1+
b10 7
1E
0F
0K
b10111 R
b11000 S

#380000
0!
0+

#385000
1!
1+
b11000 R
b11001 S

#390000
0!
0+

#395000
1!
1+
b11001 R
b11010 S

#400000
0!
0+

#405000
1!
1+
b11010 R
b11011 S

#410000
0!
0+

#415000
1!
1+
b11011 R
b11100 S

#420000
0!
0$
0+
0.

#425000
1!
1+
0E
b11100 R
b11101 S

#430000
0!
0+

#435000
1!
1+
b11101 R
b11110 S

#440000
0!
0+

#445000
1!
1+
b11110 R
b11111 S

#450000
0!
0+

#455000
1!
1+
b11111 R
b100000 S

#460000
0!
0+

#465000
1!
1+
b100000 R
b100001 S

#470000
0!
0+

#475000
1!
1+
b100001 R
b100010 S

#480000
0!
0+

#485000
1!
1+
b100010 R
b100011 S

#490000
0!
0+

#495000
1!
1+
b100011 R
b100100 S

#500000
0!
0+

#505000
1!
1+
b100100 R
b100101 S

#510000
0!
0+

#515000
1!
1+
b100101 R
b100110 S

#520000
0!
1%
0+
1/
b11 8
b1 B
1H
1K
b1 L
b1 U

#525000
1!
1+
b11 7
b1 A
1G
0H
0K
b0 L
b100110 R
b100111 S

#530000
0!
0+

#535000
1!
1+
b100111 R
b101000 S

#540000
0!
0+

#545000
1!
1+
b101000 R
b101001 S

#550000
0!
0+

#555000
1!
1+
b101001 R
b101010 S

#560000
0!
0+

#565000
1!
1+
b101010 R
b101011 S

#570000
0!
0%
0+
0/

#575000
1!
1+
0G
b101011 R
b101100 S

#580000
0!
0+

#585000
1!
1+
b101100 R
b101101 S

#590000
0!
0+

#595000
1!
1+
b101101 R
b101110 S

#600000
0!
0+

#605000
1!
1+
b101110 R
b101111 S

#610000
0!
0+

#615000
1!
1+
b101111 R
b110000 S

#620000
0!
0+

#625000
1!
1+
b110000 R
b110001 S

#630000
0!
0+

#635000
1!
1+
b110001 R
b110010 S

#640000
0!
0+

#645000
1!
1+
b110010 R
b110011 S

#650000
0!
0+

#655000
1!
1+
b110011 R
b110100 S

#660000
0!
0+

#665000
1!
1+
b110100 R
b110101 S

#670000
0!
1&
0+
10
b100 8
b10 D
1J
1K
b10 L
b10 U

#675000
1!
1+
b100 7
b101 8
b10 C
1I
0J
0K
b0 L
b110101 R
b110110 S

#680000
0!
0+

#685000
1!
1+
b101 7
b110 8
b110110 R
b110111 S

#690000
0!
0+

#695000
1!
1'
b1111001 *
1+
b1 1
b1 5
b110 7
b1 P
b110111 R
b111000 S
b1 T

#700000
0!
0+

#705000
1!
1+
b111000 R
b111001 S

#710000
0!
0+

#715000
1!
1+
b111001 R
b111010 S

#720000
0!
0&
0+
00

#725000
1!
1+
0I
b111010 R
b111011 S

#730000
0!
0+

#735000
1!
1+
b111011 R
b111100 S

#740000
0!
0+

#745000
1!
1+
b111100 R
b111101 S

#750000
0!
0+

#755000
1!
1+
b111101 R
b111110 S

#760000
0!
0+

#765000
1!
1+
b111110 R
b111111 S

#770000
0!
0+

#775000
1!
1+
b111111 R
b1000000 S

#780000
0!
0+

#785000
1!
1+
b1000000 R
b1000001 S

#790000
0!
0+

#795000
1!
1+
b1000001 R
b1000010 S

#800000
0!
0+

#805000
1!
1+
b1000010 R
b1000011 S

#810000
0!
0+

#815000
1!
1+
b1000011 R
b1000100 S

#820000
0!
0+

#825000
1!
1+
b1000100 R
b1000101 S

#830000
0!
0+

#835000
1!
1+
b1000101 R
b1000110 S

#840000
0!
0+

#845000
1!
1+
b1000110 R
b1000111 S

#850000
0!
0+

#855000
1!
1+
b1000111 R
b1001000 S

#860000
0!
0+

#865000
1!
1+
b1001000 R
b1001001 S

#870000
0!
0+

#875000
1!
1+
b1001001 R
b1001010 S

#880000
0!
0+

#885000
1!
1+
b1001010 R
b1001011 S

#890000
0!
0+

#895000
1!
1+
b1001011 R
b1001100 S

#900000
0!
0+

#905000
1!
1+
b1001100 R
b1001101 S

#910000
0!
0+

#915000
1!
1+
b1001101 R
b1001110 S

#920000
0!
0+

#925000
1!
1+
b1001110 R
b1001111 S

#930000
0!
0+

#935000
1!
1+
b1001111 R
b1010000 S

#940000
0!
0+

#945000
1!
1+
b1010000 R
b1010001 S

#950000
0!
0+

#955000
1!
1+
b1010001 R
b1010010 S

#960000
0!
0+

#965000
1!
1+
b1010010 R
b1010011 S

#970000
0!
0+

#975000
1!
1+
b1010011 R
b1010100 S

#980000
0!
0+

#985000
1!
1+
b1010100 R
b1010101 S

#990000
0!
0+

#995000
1!
1+
b1010101 R
b1010110 S

